%YAML 1.1
%TAG !u! tag:unity3d.com,2011:
--- !u!319 &101100000
AvatarMask:
  m_ObjectHideFlags: 0
  m_CorrespondingSourceObject: {fileID: 0}
  m_PrefabInstance: {fileID: 0}
  m_PrefabAsset: {fileID: 0}
  m_Name: AimMask
  m_Mask: 00000000000000000000000000000000000000000100000001000000010000000100000000000000000000000100000001000000
  m_Elements:
  - m_Path: 
    m_Weight: 1
  - m_Path: Bip001
    m_Weight: 0
  - m_Path: Bip001/Bip001 Footsteps
    m_Weight: 0
  - m_Path: Bip001/Bip001 Pelvis
    m_Weight: 0
  - m_Path: Bip001/Bip001 Pelvis/Bip001 Spine
    m_Weight: 0
  - m_Path: Bip001/Bip001 Pelvis/Bip001 Spine/Bip001 L Thigh
    m_Weight: 0
  - m_Path: Bip001/Bip001 Pelvis/Bip001 Spine/Bip001 L Thigh/Bip001 L Calf
    m_Weight: 0
  - m_Path: Bip001/Bip001 Pelvis/Bip001 Spine/Bip001 L Thigh/Bip001 L Calf/Bip001
      L Foot
    m_Weight: 0
  - m_Path: Bip001/Bip001 Pelvis/Bip001 Spine/Bip001 L Thigh/Bip001 L Calf/Bip001
      L Foot/Bip001 L Toe0
    m_Weight: 0
  - m_Path: Bip001/Bip001 Pelvis/Bip001 Spine/Bip001 L Thigh/Bip001 L Calf/Bip001
      L Foot/Bip001 L Toe0/Bip001 L Toe0Nub
    m_Weight: 0
  - m_Path: Bip001/Bip001 Pelvis/Bip001 Spine/Bip001 R Thigh
    m_Weight: 0
  - m_Path: Bip001/Bip001 Pelvis/Bip001 Spine/Bip001 R Thigh/Bip001 R Calf
    m_Weight: 0
  - m_Path: Bip001/Bip001 Pelvis/Bip001 Spine/Bip001 R Thigh/Bip001 R Calf/Bip001
      R Foot
    m_Weight: 0
  - m_Path: Bip001/Bip001 Pelvis/Bip001 Spine/Bip001 R Thigh/Bip001 R Calf/Bip001
      R Foot/Bip001 R Toe0
    m_Weight: 0
  - m_Path: Bip001/Bip001 Pelvis/Bip001 Spine/Bip001 R Thigh/Bip001 R Calf/Bip001
      R Foot/Bip001 R Toe0/Bip001 R Toe0Nub
    m_Weight: 0
  - m_Path: Bip001/Bip001 Pelvis/Bip001 Spine/Bip001 Spine1
    m_Weight: 0
  - m_Path: Bip001/Bip001 Pelvis/Bip001 Spine/Bip001 Spine1/Bip001 Neck
    m_Weight: 1
  - m_Path: Bip001/Bip001 Pelvis/Bip001 Spine/Bip001 Spine1/Bip001 Neck/Bip001 Head
    m_Weight: 0
  - m_Path: Bip001/Bip001 Pelvis/Bip001 Spine/Bip001 Spine1/Bip001 Neck/Bip001 Head/Bip001
      HeadNub
    m_Weight: 0
  - m_Path: Bip001/Bip001 Pelvis/Bip001 Spine/Bip001 Spine1/Bip001 Neck/Bip001 Head/Sphere001
    m_Weight: 0
  - m_Path: Bip001/Bip001 Pelvis/Bip001 Spine/Bip001 Spine1/Bip001 Neck/Bip001 Head/Sphere002
    m_Weight: 0
  - m_Path: Bip001/Bip001 Pelvis/Bip001 Spine/Bip001 Spine1/Bip001 Neck/Bip001 L Clavicle
    m_Weight: 1
  - m_Path: Bip001/Bip001 Pelvis/Bip001 Spine/Bip001 Spine1/Bip001 Neck/Bip001 L Clavicle/Bip001
      L UpperArm
    m_Weight: 1
  - m_Path: Bip001/Bip001 Pelvis/Bip001 Spine/Bip001 Spine1/Bip001 Neck/Bip001 L Clavicle/Bip001
      L UpperArm/Bip001 L Forearm
    m_Weight: 1
  - m_Path: Bip001/Bip001 Pelvis/Bip001 Spine/Bip001 Spine1/Bip001 Neck/Bip001 L Clavicle/Bip001
      L UpperArm/Bip001 L Forearm/Bip001 L Hand
    m_Weight: 1
  - m_Path: Bip001/Bip001 Pelvis/Bip001 Spine/Bip001 Spine1/Bip001 Neck/Bip001 L Clavicle/Bip001
      L UpperArm/Bip001 L Forearm/Bip001 L Hand/Bip001 L Finger0
    m_Weight: 1
  - m_Path: Bip001/Bip001 Pelvis/Bip001 Spine/Bip001 Spine1/Bip001 Neck/Bip001 L Clavicle/Bip001
      L UpperArm/Bip001 L Forearm/Bip001 L Hand/Bip001 L Finger0/Bip001 L Finger01
    m_Weight: 1
  - m_Path: Bip001/Bip001 Pelvis/Bip001 Spine/Bip001 Spine1/Bip001 Neck/Bip001 L Clavicle/Bip001
      L UpperArm/Bip001 L Forearm/Bip001 L Hand/Bip001 L Finger0/Bip001 L Finger01/Bip001
      L Finger0Nub
    m_Weight: 1
  - m_Path: Bip001/Bip001 Pelvis/Bip001 Spine/Bip001 Spine1/Bip001 Neck/Bip001 L Clavicle/Bip001
      L UpperArm/Bip001 L Forearm/Bip001 L Hand/Bip001 L Finger1
    m_Weight: 1
  - m_Path: Bip001/Bip001 Pelvis/Bip001 Spine/Bip001 Spine1/Bip001 Neck/Bip001 L Clavicle/Bip001
      L UpperArm/Bip001 L Forearm/Bip001 L Hand/Bip001 L Finger1/Bip001 L Finger11
    m_Weight: 1
  - m_Path: Bip001/Bip001 Pelvis/Bip001 Spine/Bip001 Spine1/Bip001 Neck/Bip001 L Clavicle/Bip001
      L UpperArm/Bip001 L Forearm/Bip001 L Hand/Bip001 L Finger1/Bip001 L Finger11/Bip001
      L Finger1Nub
    m_Weight: 1
  - m_Path: Bip001/Bip001 Pelvis/Bip001 Spine/Bip001 Spine1/Bip001 Neck/Bip001 L Clavicle/Bip001
      L UpperArm/Bip001 L Forearm/Bip001 L Hand/Bip001 L Finger2
    m_Weight: 1
  - m_Path: Bip001/Bip001 Pelvis/Bip001 Spine/Bip001 Spine1/Bip001 Neck/Bip001 L Clavicle/Bip001
      L UpperArm/Bip001 L Forearm/Bip001 L Hand/Bip001 L Finger2/Bip001 L Finger21
    m_Weight: 1
  - m_Path: Bip001/Bip001 Pelvis/Bip001 Spine/Bip001 Spine1/Bip001 Neck/Bip001 L Clavicle/Bip001
      L UpperArm/Bip001 L Forearm/Bip001 L Hand/Bip001 L Finger2/Bip001 L Finger21/Bip001
      L Finger2Nub
    m_Weight: 1
  - m_Path: Bip001/Bip001 Pelvis/Bip001 Spine/Bip001 Spine1/Bip001 Neck/Bip001 L Clavicle/Bip001
      L UpperArm/Bip001 L Forearm/Bip001 L Hand/Bip001 L Finger3
    m_Weight: 1
  - m_Path: Bip001/Bip001 Pelvis/Bip001 Spine/Bip001 Spine1/Bip001 Neck/Bip001 L Clavicle/Bip001
      L UpperArm/Bip001 L Forearm/Bip001 L Hand/Bip001 L Finger3/Bip001 L Finger31
    m_Weight: 1
  - m_Path: Bip001/Bip001 Pelvis/Bip001 Spine/Bip001 Spine1/Bip001 Neck/Bip001 L Clavicle/Bip001
      L UpperArm/Bip001 L Forearm/Bip001 L Hand/Bip001 L Finger3/Bip001 L Finger31/Bip001
      L Finger3Nub
    m_Weight: 1
  - m_Path: Bip001/Bip001 Pelvis/Bip001 Spine/Bip001 Spine1/Bip001 Neck/Bip001 L Clavicle/Bip001
      L UpperArm/Bip001 L Forearm/Bip001 L Hand/Bip001 L Finger4
    m_Weight: 1
  - m_Path: Bip001/Bip001 Pelvis/Bip001 Spine/Bip001 Spine1/Bip001 Neck/Bip001 L Clavicle/Bip001
      L UpperArm/Bip001 L Forearm/Bip001 L Hand/Bip001 L Finger4/Bip001 L Finger41
    m_Weight: 1
  - m_Path: Bip001/Bip001 Pelvis/Bip001 Spine/Bip001 Spine1/Bip001 Neck/Bip001 L Clavicle/Bip001
      L UpperArm/Bip001 L Forearm/Bip001 L Hand/Bip001 L Finger4/Bip001 L Finger41/Bip001
      L Finger4Nub
    m_Weight: 1
  - m_Path: Bip001/Bip001 Pelvis/Bip001 Spine/Bip001 Spine1/Bip001 Neck/Bip001 R Clavicle
    m_Weight: 1
  - m_Path: Bip001/Bip001 Pelvis/Bip001 Spine/Bip001 Spine1/Bip001 Neck/Bip001 R Clavicle/Bip001
      R UpperArm
    m_Weight: 1
  - m_Path: Bip001/Bip001 Pelvis/Bip001 Spine/Bip001 Spine1/Bip001 Neck/Bip001 R Clavicle/Bip001
      R UpperArm/Bip001 R Forearm
    m_Weight: 1
  - m_Path: Bip001/Bip001 Pelvis/Bip001 Spine/Bip001 Spine1/Bip001 Neck/Bip001 R Clavicle/Bip001
      R UpperArm/Bip001 R Forearm/Bip001 R Hand
    m_Weight: 1
  - m_Path: Bip001/Bip001 Pelvis/Bip001 Spine/Bip001 Spine1/Bip001 Neck/Bip001 R Clavicle/Bip001
      R UpperArm/Bip001 R Forearm/Bip001 R Hand/Bip001 R Finger0
    m_Weight: 1
  - m_Path: Bip001/Bip001 Pelvis/Bip001 Spine/Bip001 Spine1/Bip001 Neck/Bip001 R Clavicle/Bip001
      R UpperArm/Bip001 R Forearm/Bip001 R Hand/Bip001 R Finger0/Bip001 R Finger01
    m_Weight: 1
  - m_Path: Bip001/Bip001 Pelvis/Bip001 Spine/Bip001 Spine1/Bip001 Neck/Bip001 R Clavicle/Bip001
      R UpperArm/Bip001 R Forearm/Bip001 R Hand/Bip001 R Finger0/Bip001 R Finger01/Bip001
      R Finger0Nub
    m_Weight: 1
  - m_Path: Bip001/Bip001 Pelvis/Bip001 Spine/Bip001 Spine1/Bip001 Neck/Bip001 R Clavicle/Bip001
      R UpperArm/Bip001 R Forearm/Bip001 R Hand/Bip001 R Finger1
    m_Weight: 1
  - m_Path: Bip001/Bip001 Pelvis/Bip001 Spine/Bip001 Spine1/Bip001 Neck/Bip001 R Clavicle/Bip001
      R UpperArm/Bip001 R Forearm/Bip001 R Hand/Bip001 R Finger1/Bip001 R Finger11
    m_Weight: 1
  - m_Path: Bip001/Bip001 Pelvis/Bip001 Spine/Bip001 Spine1/Bip001 Neck/Bip001 R Clavicle/Bip001
      R UpperArm/Bip001 R Forearm/Bip001 R Hand/Bip001 R Finger1/Bip001 R Finger11/Bip001
      R Finger1Nub
    m_Weight: 1
  - m_Path: Bip001/Bip001 Pelvis/Bip001 Spine/Bip001 Spine1/Bip001 Neck/Bip001 R Clavicle/Bip001
      R UpperArm/Bip001 R Forearm/Bip001 R Hand/Bip001 R Finger2
    m_Weight: 1
  - m_Path: Bip001/Bip001 Pelvis/Bip001 Spine/Bip001 Spine1/Bip001 Neck/Bip001 R Clavicle/Bip001
      R UpperArm/Bip001 R Forearm/Bip001 R Hand/Bip001 R Finger2/Bip001 R Finger21
    m_Weight: 1
  - m_Path: Bip001/Bip001 Pelvis/Bip001 Spine/Bip001 Spine1/Bip001 Neck/Bip001 R Clavicle/Bip001
      R UpperArm/Bip001 R Forearm/Bip001 R Hand/Bip001 R Finger2/Bip001 R Finger21/Bip001
      R Finger2Nub
    m_Weight: 1
  - m_Path: Bip001/Bip001 Pelvis/Bip001 Spine/Bip001 Spine1/Bip001 Neck/Bip001 R Clavicle/Bip001
      R UpperArm/Bip001 R Forearm/Bip001 R Hand/Bip001 R Finger3
    m_Weight: 1
  - m_Path: Bip001/Bip001 Pelvis/Bip001 Spine/Bip001 Spine1/Bip001 Neck/Bip001 R Clavicle/Bip001
      R UpperArm/Bip001 R Forearm/Bip001 R Hand/Bip001 R Finger3/Bip001 R Finger31
    m_Weight: 1
  - m_Path: Bip001/Bip001 Pelvis/Bip001 Spine/Bip001 Spine1/Bip001 Neck/Bip001 R Clavicle/Bip001
      R UpperArm/Bip001 R Forearm/Bip001 R Hand/Bip001 R Finger3/Bip001 R Finger31/Bip001
      R Finger3Nub
    m_Weight: 1
  - m_Path: Bip001/Bip001 Pelvis/Bip001 Spine/Bip001 Spine1/Bip001 Neck/Bip001 R Clavicle/Bip001
      R UpperArm/Bip001 R Forearm/Bip001 R Hand/Bip001 R Finger4
    m_Weight: 1
  - m_Path: Bip001/Bip001 Pelvis/Bip001 Spine/Bip001 Spine1/Bip001 Neck/Bip001 R Clavicle/Bip001
      R UpperArm/Bip001 R Forearm/Bip001 R Hand/Bip001 R Finger4/Bip001 R Finger41
    m_Weight: 1
  - m_Path: Bip001/Bip001 Pelvis/Bip001 Spine/Bip001 Spine1/Bip001 Neck/Bip001 R Clavicle/Bip001
      R UpperArm/Bip001 R Forearm/Bip001 R Hand/Bip001 R Finger4/Bip001 R Finger41/Bip001
      R Finger4Nub
    m_Weight: 1
  - m_Path: default
    m_Weight: 1
